Igra/Binaries/Win64/Igra.exe	2019-07-24T23:16:28.000Z
Engine/Extras/Redist/en-us/UE4PrereqSetup_x64.exe	2019-07-23T20:36:17.409Z
Engine/Binaries/ThirdParty/Oculus/OVRPlugin/OVRPlugin/Win64/OVRPlugin.dll	2019-07-23T20:25:42.821Z
Engine/Binaries/ThirdParty/DbgHelp/dbghelp.dll	2019-07-23T20:25:16.755Z
Engine/Binaries/ThirdParty/libsndfile/Win64/libsndfile-1.dll	2019-07-23T20:25:23.437Z
Engine/Binaries/ThirdParty/PhysX3/Win64/VS2015/PxFoundationPROFILE_x64.dll	2019-07-23T20:26:26.960Z
Engine/Binaries/ThirdParty/PhysX3/Win64/VS2015/PxPvdSDKPROFILE_x64.dll	2019-07-23T20:26:27.118Z
Engine/Binaries/ThirdParty/PhysX3/Win64/VS2015/PhysX3PROFILE_x64.dll	2019-07-23T20:26:25.330Z
Engine/Binaries/ThirdParty/PhysX3/Win64/VS2015/PhysX3CookingPROFILE_x64.dll	2019-07-23T20:26:24.404Z
Engine/Binaries/ThirdParty/PhysX3/Win64/VS2015/PhysX3CommonPROFILE_x64.dll	2019-07-23T20:26:24.077Z
Engine/Binaries/ThirdParty/PhysX3/Win64/VS2015/APEX_ClothingPROFILE_x64.dll	2019-07-23T20:26:12.183Z
Engine/Binaries/ThirdParty/PhysX3/Win64/VS2015/APEX_LegacyPROFILE_x64.dll	2019-07-23T20:26:17.154Z
Engine/Binaries/ThirdParty/PhysX3/Win64/VS2015/ApexFrameworkPROFILE_x64.dll	2019-07-23T20:26:18.532Z
Engine/Binaries/ThirdParty/PhysX3/Win64/VS2015/APEX_DestructiblePROFILE_x64.dll	2019-07-23T20:26:14.220Z
Engine/Binaries/ThirdParty/PhysX3/Win64/VS2015/NvClothPROFILE_x64.dll	2019-07-23T20:26:19.988Z
Engine/Binaries/ThirdParty/NVIDIA/NVaftermath/Win64/GFSDK_Aftermath_Lib.x64.dll	2019-07-23T20:25:39.607Z
Engine/Binaries/ThirdParty/Windows/DirectX/x64/WinPixEventRuntime.dll	2019-07-23T20:26:44.152Z
Engine/Binaries/ThirdParty/OpenVR/OpenVRv1_0_16/Win64/openvr_api.dll	2019-07-23T20:25:42.909Z
Engine/Binaries/ThirdParty/Ogg/Win64/VS2015/libogg_64.dll	2019-07-23T20:25:42.826Z
Engine/Binaries/ThirdParty/Vorbis/Win64/VS2015/libvorbis_64.dll	2019-07-23T20:26:41.191Z
Engine/Binaries/ThirdParty/Vorbis/Win64/VS2015/libvorbisfile_64.dll	2019-07-23T20:26:41.197Z
Igra/Content/Movies/bm2 (2).mp4	2019-07-15T07:42:38.000Z
Igra.exe	2019-07-28T10:18:34.000Z
